<svg width="25" height="21" viewBox="0 0 25 21" fill="none" xmlns="http://www.w3.org/2000/svg">
<path d="M3.91853 0.535584H21.0792C21.9983 0.535523 22.8826 0.887161 23.5506 1.51836C24.2187 2.14956 24.6199 3.01248 24.6719 3.93008L24.6775 4.1338V16.8659C24.6775 17.785 24.3259 18.6693 23.6947 19.3373C23.0635 20.0054 22.2006 20.4066 21.283 20.4586L21.0792 20.4642H3.91853C2.99945 20.4642 2.11518 20.1126 1.44713 19.4814C0.779076 18.8502 0.377882 17.9873 0.325848 17.0697L0.320313 16.8659V4.1338C0.320252 3.21472 0.67189 2.33045 1.30309 1.6624C1.93429 0.994347 2.79721 0.593153 3.71481 0.541119L3.91853 0.535584H21.0792H3.91853ZM23.0167 7.07326L12.882 12.3433C12.7838 12.3943 12.6764 12.4252 12.5661 12.4341C12.4559 12.443 12.3449 12.4298 12.2398 12.3953L12.1158 12.3433L1.98103 7.07326V16.8659C1.98104 17.3522 2.16389 17.8207 2.49328 18.1783C2.82266 18.536 3.2745 18.7568 3.7591 18.7968L3.91853 18.8034H21.0792C21.5657 18.8034 22.0343 18.6204 22.392 18.2908C22.7497 17.9612 22.9703 17.5091 23.0101 17.0243L23.0167 16.8659V7.07326ZM21.0792 2.1963H3.91853C3.43228 2.19632 2.96382 2.37917 2.60613 2.70855C2.24844 3.03794 2.02768 3.48977 1.98767 3.97437L1.98103 4.1338V5.20108L12.4989 10.6704L23.0167 5.20108V4.1338C23.0167 3.64738 22.8337 3.17877 22.5041 2.82105C22.1745 2.46333 21.7224 2.24269 21.2376 2.20294L21.0792 2.1963Z" fill="#9A77CF"/>
</svg>
