<svg width="10" height="10" viewBox="0 0 10 10" fill="none" xmlns="http://www.w3.org/2000/svg">
<path d="M9.08464 1.73852L8.26214 0.916016L5.0013 4.17685L1.74047 0.916016L0.917969 1.73852L4.1788 4.99935L0.917969 8.26018L1.74047 9.08268L5.0013 5.82185L8.26214 9.08268L9.08464 8.26018L5.8238 4.99935L9.08464 1.73852Z" fill="#2F76C1"/>
</svg>
