<svg width="28" height="28" viewBox="0 0 28 28" fill="none" xmlns="http://www.w3.org/2000/svg">
<path d="M21.5692 27.5645C21.3076 27.5638 21.0469 27.5351 20.7914 27.479C15.9277 26.4729 11.4469 24.1138 7.86473 20.6734C4.35903 17.2255 1.92763 12.8354 0.864728 8.03453C0.739398 7.43619 0.770159 6.81567 0.954052 6.23267C1.13794 5.64966 1.46878 5.12379 1.91473 4.70564L5.02584 1.7112C5.18474 1.56092 5.37355 1.44584 5.57994 1.37347C5.78633 1.3011 6.00566 1.27307 6.22362 1.2912C6.44961 1.31477 6.6677 1.38757 6.86254 1.50448C7.05738 1.62138 7.22424 1.77955 7.3514 1.96786L11.2403 7.71564C11.3861 7.93866 11.4565 8.20261 11.4411 8.46864C11.4257 8.73466 11.3253 8.98872 11.1547 9.19342L9.20251 11.5268C9.98001 13.2475 11.0811 14.8028 12.4458 16.1079C13.8017 17.4603 15.4044 18.5401 17.167 19.289L19.5858 17.3679C19.789 17.2073 20.0362 17.1124 20.2946 17.0957C20.553 17.079 20.8104 17.1414 21.0325 17.2745L26.9047 21.0701C27.1062 21.1904 27.2779 21.3548 27.4069 21.5509C27.5359 21.7469 27.6188 21.9697 27.6495 22.2024C27.6802 22.4351 27.6578 22.6717 27.584 22.8945C27.5103 23.1173 27.3871 23.3205 27.2236 23.489L24.1903 26.4912C23.8457 26.8341 23.4368 27.1054 22.9869 27.2896C22.5371 27.4738 22.0553 27.5673 21.5692 27.5645ZM6.09917 2.8312L2.98806 5.82564C2.73719 6.0594 2.55148 6.35444 2.44921 6.68173C2.34693 7.00902 2.3316 7.3573 2.40473 7.69231C3.39307 12.1973 5.66495 16.3197 8.94584 19.5612C12.3169 22.798 16.5335 25.0168 21.1103 25.9623C21.4567 26.0347 21.8157 26.0201 22.1551 25.9196C22.4944 25.8192 22.8035 25.6361 23.0547 25.3868L26.0881 22.3845L20.4181 18.7212L17.8203 20.7901C17.7208 20.8688 17.6036 20.922 17.4789 20.945C17.3542 20.9681 17.2257 20.9603 17.1047 20.9223C14.9477 20.1276 12.993 18.866 11.3803 17.2279C9.71223 15.6701 8.41744 13.7559 7.59251 11.6279C7.55761 11.499 7.55645 11.3634 7.58914 11.234C7.62183 11.1046 7.68727 10.9858 7.77917 10.889L9.87917 8.37675L6.09917 2.8312Z" fill="#9A77CF"/>
</svg>
