<svg width="12" height="12" viewBox="0 0 12 12" fill="none" xmlns="http://www.w3.org/2000/svg">
<path d="M11.9999 8.30667L8.4866 7.9L6.8066 9.58C4.91994 8.62 3.37327 7.08 2.41327 5.18667L4.09994 3.5L3.69327 0H0.019935C-0.366732 6.78667 5.21327 12.3667 11.9999 11.98V8.30667Z" fill="#F9F5F0"/>
</svg>
