<svg width="11" height="9" viewBox="0 0 11 9" fill="none" xmlns="http://www.w3.org/2000/svg">
<path d="M3.87501 6.44994L1.60001 3.99994L0.841675 4.8166L3.87501 8.08327L10.375 1.08327L9.61668 0.266602L3.87501 6.44994Z" fill="#2F76C1"/>
</svg>
